EESchema Schematic File Version 2
LIBS:power
LIBS:device
LIBS:switches
LIBS:relays
LIBS:motors
LIBS:transistors
LIBS:conn
LIBS:linear
LIBS:regul
LIBS:74xx
LIBS:cmos4000
LIBS:adc-dac
LIBS:memory
LIBS:xilinx
LIBS:microcontrollers
LIBS:dsp
LIBS:microchip
LIBS:analog_switches
LIBS:motorola
LIBS:texas
LIBS:intel
LIBS:audio
LIBS:interface
LIBS:digital-audio
LIBS:philips
LIBS:display
LIBS:cypress
LIBS:siliconi
LIBS:opto
LIBS:atmel
LIBS:contrib
LIBS:valves
LIBS:arduino
LIBS:alpide
LIBS:Maxim-Integrated
LIBS:texas_instruments
LIBS:Bachelor-cache
EELAYER 25 0
EELAYER END
$Descr A3 16535 11693
encoding utf-8
Sheet 1 1
Title "ALPIDE Arduino Shield Simplified Design"
Date ""
Rev "1.0.0"
Comp ""
Comment1 "Based upon CERN ITS Teams ALPIDE ARDUINO SHIELD. Simplifed for easier redesign and construction"
Comment2 ""
Comment3 ""
Comment4 ""
$EndDescr
$Comp
L Alpide U3
U 1 1 5A5CD9E4
P 8250 1800
F 0 "U3" H 8350 2250 60  0000 C CNN
F 1 "Alpide" H 8100 2250 60  0000 C CNN
F 2 "alpide_footprint:ALPIDE_Footprint" H 8100 2250 60  0001 C CNN
F 3 "" H 8100 2250 60  0001 C CNN
	1    8250 1800
	1    0    0    -1  
$EndComp
$Comp
L GNDD #PWR01
U 1 1 5A5CDBDE
P 6750 1900
F 0 "#PWR01" H 6750 1650 50  0001 C CNN
F 1 "GNDD" H 6750 1775 50  0000 C CNN
F 2 "" H 6750 1900 50  0001 C CNN
F 3 "" H 6750 1900 50  0001 C CNN
	1    6750 1900
	0    1    1    0   
$EndComp
$Comp
L GNDD #PWR02
U 1 1 5A5CDC16
P 6550 4150
F 0 "#PWR02" H 6550 3900 50  0001 C CNN
F 1 "GNDD" H 6550 4025 50  0000 C CNN
F 2 "" H 6550 4150 50  0001 C CNN
F 3 "" H 6550 4150 50  0001 C CNN
	1    6550 4150
	1    0    0    -1  
$EndComp
$Comp
L VDD #PWR03
U 1 1 5A5CDC55
P 6700 3450
F 0 "#PWR03" H 6700 3300 50  0001 C CNN
F 1 "VDD" H 6700 3600 50  0000 C CNN
F 2 "" H 6700 3450 50  0001 C CNN
F 3 "" H 6700 3450 50  0001 C CNN
	1    6700 3450
	1    0    0    -1  
$EndComp
Text Label 7300 2750 2    60   ~ 0
CHIPID[6]
Text Label 7300 2850 2    60   ~ 0
CHIPID[5]
Text Label 7300 2950 2    60   ~ 0
CHIPID[4]
Text Label 7300 3050 2    60   ~ 0
CHIPID[3]
Text Label 7300 3150 2    60   ~ 0
CHIPID[2]
Text Label 7300 3250 2    60   ~ 0
CHIPID[1]
Text Label 7300 3350 2    60   ~ 0
CHIPID[0]
Text Label 2200 7950 0    60   ~ 0
CHIPID[6]
Text Label 2200 8100 0    60   ~ 0
CHIPID[5]
Text Label 2200 8250 0    60   ~ 0
CHIPID[4]
Text Label 2200 8550 0    60   ~ 0
CHIPID[3]
Text Label 2200 8650 0    60   ~ 0
CHIPID[2]
Text Label 2200 8900 0    60   ~ 0
CHIPID[1]
Text Label 2200 9050 0    60   ~ 0
CHIPID[0]
$Comp
L R R4
U 1 1 5A5CE1A2
P 1700 8250
F 0 "R4" V 1780 8250 50  0000 C CNN
F 1 "0" V 1700 8250 50  0000 C CNN
F 2 "Resistors_SMD:R_0805" V 1630 8250 50  0001 C CNN
F 3 "" H 1700 8250 50  0001 C CNN
	1    1700 8250
	0    1    1    0   
$EndComp
$Comp
L R R5
U 1 1 5A5CE211
P 1700 8900
F 0 "R5" V 1780 8900 50  0000 C CNN
F 1 "0" V 1700 8900 50  0000 C CNN
F 2 "Resistors_SMD:R_0805" V 1630 8900 50  0001 C CNN
F 3 "" H 1700 8900 50  0001 C CNN
	1    1700 8900
	0    1    1    0   
$EndComp
$Comp
L R R3
U 1 1 5A5CE230
P 1700 8100
F 0 "R3" V 1780 8100 50  0000 C CNN
F 1 "0" V 1700 8100 50  0000 C CNN
F 2 "Resistors_SMD:R_0805" V 1630 8100 50  0001 C CNN
F 3 "" H 1700 8100 50  0001 C CNN
	1    1700 8100
	0    1    1    0   
$EndComp
$Comp
L R R2
U 1 1 5A5CE24F
P 1700 7950
F 0 "R2" V 1780 7950 50  0000 C CNN
F 1 "0" V 1700 7950 50  0000 C CNN
F 2 "Resistors_SMD:R_0805" V 1630 7950 50  0001 C CNN
F 3 "" H 1700 7950 50  0001 C CNN
	1    1700 7950
	0    1    1    0   
$EndComp
$Comp
L R R6
U 1 1 5A5CE283
P 1700 9050
F 0 "R6" V 1780 9050 50  0000 C CNN
F 1 "0" V 1700 9050 50  0000 C CNN
F 2 "Resistors_SMD:R_0805" V 1630 9050 50  0001 C CNN
F 3 "" H 1700 9050 50  0001 C CNN
	1    1700 9050
	0    1    1    0   
$EndComp
$Comp
L VDD #PWR04
U 1 1 5A5CE4C0
P 1050 7850
F 0 "#PWR04" H 1050 7700 50  0001 C CNN
F 1 "VDD" H 1050 8000 50  0000 C CNN
F 2 "" H 1050 7850 50  0001 C CNN
F 3 "" H 1050 7850 50  0001 C CNN
	1    1050 7850
	1    0    0    -1  
$EndComp
$Comp
L SW_DIP_x02 SW1
U 1 1 5A5CE61F
P 1700 8650
F 0 "SW1" H 1700 8900 50  0000 C CNN
F 1 "SW_DIP_x02" H 1700 8500 50  0000 C CNN
F 2 "ALCO_Switches:ALCO_SMD_DIPx02" H 1700 8650 50  0001 C CNN
F 3 "" H 1700 8650 50  0001 C CNN
	1    1700 8650
	1    0    0    -1  
$EndComp
$Comp
L VDD #PWR05
U 1 1 5A5CEA3C
P 9350 3450
F 0 "#PWR05" H 9350 3300 50  0001 C CNN
F 1 "VDD" H 9350 3600 50  0000 C CNN
F 2 "" H 9350 3450 50  0001 C CNN
F 3 "" H 9350 3450 50  0001 C CNN
	1    9350 3450
	1    0    0    -1  
$EndComp
$Comp
L GNDD #PWR06
U 1 1 5A5CEA8F
P 9350 3650
F 0 "#PWR06" H 9350 3400 50  0001 C CNN
F 1 "GNDD" H 9350 3525 50  0000 C CNN
F 2 "" H 9350 3650 50  0001 C CNN
F 3 "" H 9350 3650 50  0001 C CNN
	1    9350 3650
	1    0    0    -1  
$EndComp
Text Label 9400 2400 0    60   ~ 0
CTRL
$Comp
L VDD #PWR07
U 1 1 5A5CEB45
P 4850 4300
F 0 "#PWR07" H 4850 4150 50  0001 C CNN
F 1 "VDD" H 4850 4450 50  0000 C CNN
F 2 "" H 4850 4300 50  0001 C CNN
F 3 "" H 4850 4300 50  0001 C CNN
	1    4850 4300
	1    0    0    -1  
$EndComp
$Comp
L GNDD #PWR08
U 1 1 5A5CEB65
P 4850 4900
F 0 "#PWR08" H 4850 4650 50  0001 C CNN
F 1 "GNDD" H 4850 4775 50  0000 C CNN
F 2 "" H 4850 4900 50  0001 C CNN
F 3 "" H 4850 4900 50  0001 C CNN
	1    4850 4900
	1    0    0    -1  
$EndComp
$Comp
L C C5
U 1 1 5A5CEB95
P 4850 4600
F 0 "C5" H 4875 4700 50  0000 L CNN
F 1 "4.7uF" H 4875 4500 50  0000 L CNN
F 2 "Capacitors_SMD:C_0805" H 4888 4450 50  0001 C CNN
F 3 "" H 4850 4600 50  0001 C CNN
	1    4850 4600
	1    0    0    -1  
$EndComp
Text Label 1400 2850 2    60   ~ 0
3V3
$Comp
L +5V #PWR09
U 1 1 5A5CF5E8
P 950 3150
F 0 "#PWR09" H 950 3000 50  0001 C CNN
F 1 "+5V" H 950 3290 50  0000 C CNN
F 2 "" H 950 3150 50  0001 C CNN
F 3 "" H 950 3150 50  0001 C CNN
	1    950  3150
	0    -1   -1   0   
$EndComp
Text Label 1400 2750 2    60   ~ 0
GND
$Comp
L GNDD #PWR010
U 1 1 5A5CF6E2
P 1050 2800
F 0 "#PWR010" H 1050 2550 50  0001 C CNN
F 1 "GNDD" H 1050 2675 50  0000 C CNN
F 2 "" H 1050 2800 50  0001 C CNN
F 3 "" H 1050 2800 50  0001 C CNN
	1    1050 2800
	1    0    0    -1  
$EndComp
Text Label 1400 2650 2    60   ~ 0
GND
Text Notes 1400 600  0    60   ~ 0
ARDUINO HEADERS
$Comp
L ADP123AUJZ U1
U 1 1 5A5F42B2
P 2100 4500
F 0 "U1" H 1950 4725 50  0000 C CNN
F 1 "ADP123AUJZ" H 2100 4725 50  0000 L CNN
F 2 "TO_SOT_Packages_SMD:SOT-23-5" H 2100 4825 50  0001 C CNN
F 3 "" H 2100 4500 50  0001 C CNN
	1    2100 4500
	1    0    0    -1  
$EndComp
$Comp
L +5V #PWR011
U 1 1 5A5F43AE
P 1000 4250
F 0 "#PWR011" H 1000 4100 50  0001 C CNN
F 1 "+5V" H 1000 4390 50  0000 C CNN
F 2 "" H 1000 4250 50  0001 C CNN
F 3 "" H 1000 4250 50  0001 C CNN
	1    1000 4250
	1    0    0    -1  
$EndComp
$Comp
L C C1
U 1 1 5A5F4475
P 1000 4700
F 0 "C1" H 1025 4800 50  0000 L CNN
F 1 "1uF" H 1025 4600 50  0000 L CNN
F 2 "Capacitors_SMD:C_0805" H 1038 4550 50  0001 C CNN
F 3 "" H 1000 4700 50  0001 C CNN
	1    1000 4700
	1    0    0    -1  
$EndComp
$Comp
L GNDD #PWR012
U 1 1 5A5F451B
P 1000 4950
F 0 "#PWR012" H 1000 4700 50  0001 C CNN
F 1 "GNDD" H 1000 4825 50  0000 C CNN
F 2 "" H 1000 4950 50  0001 C CNN
F 3 "" H 1000 4950 50  0001 C CNN
	1    1000 4950
	1    0    0    -1  
$EndComp
Text Label 1600 4500 2    60   ~ 0
ENABLE_IO
$Comp
L R R1
U 1 1 5A5F477A
P 1700 4750
F 0 "R1" V 1780 4750 50  0000 C CNN
F 1 "10k" V 1700 4750 50  0000 C CNN
F 2 "Resistors_SMD:R_0805" V 1630 4750 50  0001 C CNN
F 3 "" H 1700 4750 50  0001 C CNN
	1    1700 4750
	1    0    0    -1  
$EndComp
$Comp
L GNDD #PWR013
U 1 1 5A5F47C3
P 1700 4950
F 0 "#PWR013" H 1700 4700 50  0001 C CNN
F 1 "GNDD" H 1700 4825 50  0000 C CNN
F 2 "" H 1700 4950 50  0001 C CNN
F 3 "" H 1700 4950 50  0001 C CNN
	1    1700 4950
	1    0    0    -1  
$EndComp
$Comp
L GNDD #PWR014
U 1 1 5A5F49A0
P 2100 4950
F 0 "#PWR014" H 2100 4700 50  0001 C CNN
F 1 "GNDD" H 2100 4825 50  0000 C CNN
F 2 "" H 2100 4950 50  0001 C CNN
F 3 "" H 2100 4950 50  0001 C CNN
	1    2100 4950
	1    0    0    -1  
$EndComp
$Comp
L R R7
U 1 1 5A5F4A1C
P 2850 4600
F 0 "R7" V 2930 4600 50  0000 C CNN
F 1 "390" V 2850 4600 50  0000 C CNN
F 2 "Resistors_SMD:R_0805" V 2780 4600 50  0001 C CNN
F 3 "" H 2850 4600 50  0001 C CNN
	1    2850 4600
	1    0    0    -1  
$EndComp
$Comp
L R R8
U 1 1 5A5F4A89
P 2850 5000
F 0 "R8" V 2930 5000 50  0000 C CNN
F 1 "150" V 2850 5000 50  0000 C CNN
F 2 "Resistors_SMD:R_0805" V 2780 5000 50  0001 C CNN
F 3 "" H 2850 5000 50  0001 C CNN
	1    2850 5000
	1    0    0    -1  
$EndComp
$Comp
L GNDD #PWR015
U 1 1 5A5F4AFB
P 2850 5200
F 0 "#PWR015" H 2850 4950 50  0001 C CNN
F 1 "GNDD" H 2850 5075 50  0000 C CNN
F 2 "" H 2850 5200 50  0001 C CNN
F 3 "" H 2850 5200 50  0001 C CNN
	1    2850 5200
	1    0    0    -1  
$EndComp
$Comp
L VDD #PWR016
U 1 1 5A5F4E3A
P 3200 4400
F 0 "#PWR016" H 3200 4250 50  0001 C CNN
F 1 "VDD" H 3200 4550 50  0000 C CNN
F 2 "" H 3200 4400 50  0001 C CNN
F 3 "" H 3200 4400 50  0001 C CNN
	1    3200 4400
	0    1    1    0   
$EndComp
$Comp
L C C3
U 1 1 5A5F4F57
P 3150 4650
F 0 "C3" H 3175 4750 50  0000 L CNN
F 1 "1uF" H 3175 4550 50  0000 L CNN
F 2 "Capacitors_SMD:C_0805" H 3188 4500 50  0001 C CNN
F 3 "" H 3150 4650 50  0001 C CNN
	1    3150 4650
	1    0    0    -1  
$EndComp
$Comp
L ADP123AUJZ-3.3 U2
U 1 1 5A5F5C8D
P 2100 5950
F 0 "U2" H 1950 6175 50  0000 C CNN
F 1 "ADP122AUJZ-3.3" H 2100 6175 50  0000 L CNN
F 2 "TO_SOT_Packages_SMD:SOT-23-5" H 2100 6275 50  0001 C CNN
F 3 "" H 2100 5950 50  0001 C CNN
	1    2100 5950
	1    0    0    -1  
$EndComp
$Comp
L GNDD #PWR017
U 1 1 5A5F5D23
P 2100 6450
F 0 "#PWR017" H 2100 6200 50  0001 C CNN
F 1 "GNDD" H 2100 6325 50  0000 C CNN
F 2 "" H 2100 6450 50  0001 C CNN
F 3 "" H 2100 6450 50  0001 C CNN
	1    2100 6450
	1    0    0    -1  
$EndComp
$Comp
L GNDD #PWR018
U 1 1 5A5F5D8D
P 1000 6450
F 0 "#PWR018" H 1000 6200 50  0001 C CNN
F 1 "GNDD" H 1000 6325 50  0000 C CNN
F 2 "" H 1000 6450 50  0001 C CNN
F 3 "" H 1000 6450 50  0001 C CNN
	1    1000 6450
	1    0    0    -1  
$EndComp
$Comp
L C C2
U 1 1 5A5F5DD1
P 1000 6150
F 0 "C2" H 1025 6250 50  0000 L CNN
F 1 "1uF" H 1025 6050 50  0000 L CNN
F 2 "Capacitors_SMD:C_0805" H 1038 6000 50  0001 C CNN
F 3 "" H 1000 6150 50  0001 C CNN
	1    1000 6150
	1    0    0    -1  
$EndComp
$Comp
L +5V #PWR019
U 1 1 5A5F5F4B
P 1000 5700
F 0 "#PWR019" H 1000 5550 50  0001 C CNN
F 1 "+5V" H 1000 5840 50  0000 C CNN
F 2 "" H 1000 5700 50  0001 C CNN
F 3 "" H 1000 5700 50  0001 C CNN
	1    1000 5700
	1    0    0    -1  
$EndComp
Text Label 1600 5950 2    60   ~ 0
ENABLE_IO
$Comp
L C C4
U 1 1 5A5F6463
P 3150 6150
F 0 "C4" H 3175 6250 50  0000 L CNN
F 1 "1uF" H 3175 6050 50  0000 L CNN
F 2 "Capacitors_SMD:C_0805" H 3188 6000 50  0001 C CNN
F 3 "" H 3150 6150 50  0001 C CNN
	1    3150 6150
	1    0    0    -1  
$EndComp
$Comp
L GNDD #PWR020
U 1 1 5A5F681A
P 3150 4950
F 0 "#PWR020" H 3150 4700 50  0001 C CNN
F 1 "GNDD" H 3150 4825 50  0000 C CNN
F 2 "" H 3150 4950 50  0001 C CNN
F 3 "" H 3150 4950 50  0001 C CNN
	1    3150 4950
	1    0    0    -1  
$EndComp
$Comp
L GNDD #PWR021
U 1 1 5A5F6A1D
P 7950 7600
F 0 "#PWR021" H 7950 7350 50  0001 C CNN
F 1 "GNDD" H 7950 7475 50  0000 C CNN
F 2 "" H 7950 7600 50  0001 C CNN
F 3 "" H 7950 7600 50  0001 C CNN
	1    7950 7600
	1    0    0    -1  
$EndComp
$Comp
L +3.3V #PWR022
U 1 1 5A5F6D11
P 3200 5850
F 0 "#PWR022" H 3200 5700 50  0001 C CNN
F 1 "+3.3V" H 3200 5990 50  0000 C CNN
F 2 "" H 3200 5850 50  0001 C CNN
F 3 "" H 3200 5850 50  0001 C CNN
	1    3200 5850
	0    1    1    0   
$EndComp
$Comp
L SN65LVDS1DBV U4
U 1 1 5A5F7F2E
P 8350 6600
F 0 "U4" H 8350 6750 60  0000 C CNN
F 1 "SN65LVDS1DBV" H 8400 6650 60  0000 C CNN
F 2 "TO_SOT_Packages_SMD:SOT-23-5" H 8350 6600 60  0001 C CNN
F 3 "" H 8350 6600 60  0001 C CNN
	1    8350 6600
	1    0    0    -1  
$EndComp
$Comp
L GNDD #PWR023
U 1 1 5A5F8142
P 7350 6900
F 0 "#PWR023" H 7350 6650 50  0001 C CNN
F 1 "GNDD" H 7350 6775 50  0000 C CNN
F 2 "" H 7350 6900 50  0001 C CNN
F 3 "" H 7350 6900 50  0001 C CNN
	1    7350 6900
	1    0    0    -1  
$EndComp
$Comp
L +3.3V #PWR024
U 1 1 5A5F8237
P 7350 6550
F 0 "#PWR024" H 7350 6400 50  0001 C CNN
F 1 "+3.3V" H 7350 6690 50  0000 C CNN
F 2 "" H 7350 6550 50  0001 C CNN
F 3 "" H 7350 6550 50  0001 C CNN
	1    7350 6550
	1    0    0    -1  
$EndComp
$Comp
L R R9
U 1 1 5A5F82E4
P 7950 7200
F 0 "R9" V 8030 7200 50  0000 C CNN
F 1 "10k" V 7950 7200 50  0000 C CNN
F 2 "Resistors_SMD:R_0805" V 7880 7200 50  0001 C CNN
F 3 "" H 7950 7200 50  0001 C CNN
	1    7950 7200
	1    0    0    -1  
$EndComp
Text Label 7850 6950 2    60   ~ 0
DCLK_IO
Wire Wire Line
	6750 1900 7400 1900
Wire Wire Line
	6550 3600 7400 3600
Wire Wire Line
	6550 3600 6550 4150
Wire Wire Line
	6550 3800 7400 3800
Connection ~ 6550 3800
Wire Wire Line
	6550 4000 7400 4000
Connection ~ 6550 4000
Wire Wire Line
	6550 3900 7400 3900
Connection ~ 6550 3900
Wire Wire Line
	7400 2750 7300 2750
Wire Wire Line
	7300 2850 7400 2850
Wire Wire Line
	7300 2950 7400 2950
Wire Wire Line
	7300 3050 7400 3050
Wire Wire Line
	7300 3150 7400 3150
Wire Wire Line
	7300 3250 7400 3250
Wire Wire Line
	7300 3350 7400 3350
Wire Wire Line
	6700 3450 6700 3700
Wire Wire Line
	6700 3500 7400 3500
Wire Wire Line
	6700 3700 7400 3700
Connection ~ 6700 3500
Wire Wire Line
	2200 7950 1850 7950
Wire Wire Line
	1850 8100 2200 8100
Wire Wire Line
	2200 8250 1850 8250
Wire Wire Line
	2200 8900 1850 8900
Wire Wire Line
	2200 9050 1850 9050
Wire Wire Line
	1050 7850 1050 9050
Wire Wire Line
	1050 9050 1550 9050
Wire Wire Line
	1550 8250 1050 8250
Connection ~ 1050 8250
Wire Wire Line
	1550 8100 1050 8100
Connection ~ 1050 8100
Wire Wire Line
	1550 7950 1050 7950
Connection ~ 1050 7950
Wire Wire Line
	1400 8550 1050 8550
Connection ~ 1050 8550
Wire Wire Line
	1050 8650 1400 8650
Connection ~ 1050 8650
Wire Wire Line
	1050 8900 1550 8900
Connection ~ 1050 8900
Wire Wire Line
	2000 8650 2200 8650
Wire Wire Line
	2200 8550 2000 8550
Wire Wire Line
	9350 3450 9350 3500
Wire Wire Line
	9350 3500 9100 3500
Wire Wire Line
	9100 3600 9350 3600
Wire Wire Line
	9350 3600 9350 3650
Wire Wire Line
	9100 2400 9400 2400
Wire Wire Line
	4850 4300 4850 4450
Wire Wire Line
	4850 4750 4850 4900
Wire Wire Line
	1000 4250 1000 4550
Wire Wire Line
	1000 4400 1800 4400
Connection ~ 1000 4400
Wire Wire Line
	1000 4950 1000 4850
Wire Wire Line
	1600 4500 1800 4500
Wire Wire Line
	1700 4950 1700 4900
Wire Wire Line
	1700 4600 1700 4500
Connection ~ 1700 4500
Wire Wire Line
	2100 4800 2100 4950
Wire Wire Line
	2850 5150 2850 5200
Wire Wire Line
	2850 4750 2850 4850
Wire Wire Line
	2500 4500 2500 4800
Wire Wire Line
	2500 4500 2400 4500
Wire Wire Line
	2500 4800 2850 4800
Connection ~ 2850 4800
Wire Wire Line
	2400 4400 3200 4400
Wire Wire Line
	2850 4400 2850 4450
Connection ~ 2850 4400
Wire Wire Line
	3150 4400 3150 4500
Connection ~ 3150 4400
Wire Wire Line
	1800 5850 1000 5850
Wire Wire Line
	1000 5700 1000 6000
Connection ~ 1000 5850
Wire Wire Line
	1000 6300 1000 6450
Wire Wire Line
	2100 6250 2100 6450
Wire Wire Line
	1800 5950 1600 5950
Wire Wire Line
	2400 5850 3200 5850
Connection ~ 3150 5850
Wire Wire Line
	3150 5850 3150 6000
Wire Wire Line
	3150 4800 3150 4950
Wire Wire Line
	7950 7350 7950 7600
Wire Wire Line
	8050 6800 7350 6800
Wire Wire Line
	7350 6800 7350 6900
Wire Wire Line
	7350 6550 7350 6650
Wire Wire Line
	7350 6650 8050 6650
Wire Wire Line
	7850 6950 8050 6950
Wire Wire Line
	7950 7050 7950 6950
Connection ~ 7950 6950
Text Label 9200 6650 0    60   ~ 0
DCLK_P
Text Label 9200 6950 0    60   ~ 0
DCLK_N
Wire Wire Line
	8650 6650 9200 6650
Wire Wire Line
	8650 6950 9200 6950
$Comp
L R R10
U 1 1 5A5F8ADB
P 8900 6800
F 0 "R10" V 8980 6800 50  0000 C CNN
F 1 "100" V 8900 6800 50  0000 C CNN
F 2 "Resistors_SMD:R_0805" V 8830 6800 50  0001 C CNN
F 3 "" H 8900 6800 50  0001 C CNN
	1    8900 6800
	1    0    0    -1  
$EndComp
Connection ~ 8900 6650
Connection ~ 8900 6950
$Comp
L TXS0102DCU U5
U 1 1 5A5F9B8C
P 11950 3350
F 0 "U5" H 12150 3850 50  0000 C CNN
F 1 "TXS0102DCU" H 12250 2850 50  0000 C CNN
F 2 "sop:MSOP8" H 12950 2750 50  0001 C CNN
F 3 "" H 11950 3320 50  0001 C CNN
	1    11950 3350
	1    0    0    -1  
$EndComp
$Comp
L GNDD #PWR025
U 1 1 5A5F9D84
P 11950 4000
F 0 "#PWR025" H 11950 3750 50  0001 C CNN
F 1 "GNDD" H 11950 3875 50  0000 C CNN
F 2 "" H 11950 4000 50  0001 C CNN
F 3 "" H 11950 4000 50  0001 C CNN
	1    11950 4000
	1    0    0    -1  
$EndComp
Wire Wire Line
	11950 3850 11950 4000
$Comp
L R R11
U 1 1 5A5FA317
P 11400 3900
F 0 "R11" V 11480 3900 50  0000 C CNN
F 1 "10k" V 11400 3900 50  0000 C CNN
F 2 "Resistors_SMD:R_0805" V 11330 3900 50  0001 C CNN
F 3 "" H 11400 3900 50  0001 C CNN
	1    11400 3900
	1    0    0    -1  
$EndComp
Wire Wire Line
	11250 3650 11550 3650
Wire Wire Line
	11400 3650 11400 3750
Connection ~ 11400 3650
$Comp
L GNDD #PWR026
U 1 1 5A5FA5B6
P 11400 4100
F 0 "#PWR026" H 11400 3850 50  0001 C CNN
F 1 "GNDD" H 11400 3975 50  0000 C CNN
F 2 "" H 11400 4100 50  0001 C CNN
F 3 "" H 11400 4100 50  0001 C CNN
	1    11400 4100
	1    0    0    -1  
$EndComp
Wire Wire Line
	11400 4050 11400 4100
$Comp
L VDD #PWR027
U 1 1 5A5FBC77
P 11250 3650
F 0 "#PWR027" H 11250 3500 50  0001 C CNN
F 1 "VDD" H 11250 3800 50  0000 C CNN
F 2 "" H 11250 3650 50  0001 C CNN
F 3 "" H 11250 3650 50  0001 C CNN
	1    11250 3650
	0    -1   -1   0   
$EndComp
Text Label 11550 3250 2    60   ~ 0
CTRL
Text Label 11550 3450 2    60   ~ 0
RST_N
Text Label 12350 3250 0    60   ~ 0
CTRL_IO
Text Label 12350 3450 0    60   ~ 0
RST_N_IO
Text Label 12050 2650 1    60   ~ 0
IOREF
$Comp
L VDD #PWR028
U 1 1 5A5FC22B
P 11850 2650
F 0 "#PWR028" H 11850 2500 50  0001 C CNN
F 1 "VDD" H 11850 2800 50  0000 C CNN
F 2 "" H 11850 2650 50  0001 C CNN
F 3 "" H 11850 2650 50  0001 C CNN
	1    11850 2650
	1    0    0    -1  
$EndComp
Wire Wire Line
	12050 2650 12050 2850
Wire Wire Line
	11850 2650 11850 2850
$Comp
L C C8
U 1 1 5A5FC902
P 13800 3350
F 0 "C8" H 13825 3450 50  0000 L CNN
F 1 "100nF" H 13825 3250 50  0000 L CNN
F 2 "Capacitors_SMD:C_0805" H 13838 3200 50  0001 C CNN
F 3 "" H 13800 3350 50  0001 C CNN
	1    13800 3350
	1    0    0    -1  
$EndComp
$Comp
L C C7
U 1 1 5A5FC977
P 13350 3350
F 0 "C7" H 13375 3450 50  0000 L CNN
F 1 "100nF" H 13375 3250 50  0000 L CNN
F 2 "Capacitors_SMD:C_0805" H 13388 3200 50  0001 C CNN
F 3 "" H 13350 3350 50  0001 C CNN
	1    13350 3350
	1    0    0    -1  
$EndComp
$Comp
L GNDD #PWR029
U 1 1 5A5FCD2B
P 13350 3950
F 0 "#PWR029" H 13350 3700 50  0001 C CNN
F 1 "GNDD" H 13350 3825 50  0000 C CNN
F 2 "" H 13350 3950 50  0001 C CNN
F 3 "" H 13350 3950 50  0001 C CNN
	1    13350 3950
	1    0    0    -1  
$EndComp
$Comp
L GNDD #PWR030
U 1 1 5A5FCD96
P 13800 3950
F 0 "#PWR030" H 13800 3700 50  0001 C CNN
F 1 "GNDD" H 13800 3825 50  0000 C CNN
F 2 "" H 13800 3950 50  0001 C CNN
F 3 "" H 13800 3950 50  0001 C CNN
	1    13800 3950
	1    0    0    -1  
$EndComp
Wire Wire Line
	13350 3500 13350 3950
Wire Wire Line
	13800 3500 13800 3950
Text Label 13350 2900 1    60   ~ 0
IOREF
$Comp
L VDD #PWR031
U 1 1 5A5FD066
P 13800 2900
F 0 "#PWR031" H 13800 2750 50  0001 C CNN
F 1 "VDD" H 13800 3050 50  0000 C CNN
F 2 "" H 13800 2900 50  0001 C CNN
F 3 "" H 13800 2900 50  0001 C CNN
	1    13800 2900
	1    0    0    -1  
$EndComp
Wire Wire Line
	13350 2900 13350 3200
Wire Wire Line
	13800 2900 13800 3200
$Comp
L DS18B20Z+ U6
U 1 1 5A5FD8DF
P 13600 5700
F 0 "U6" H 13600 5850 60  0000 C CNN
F 1 "DS18B20Z+" H 13600 5750 60  0000 C CNN
F 2 "SMD_Packages:SOIC-8-N" H 13650 5750 60  0001 C CNN
F 3 "" H 13650 5750 60  0001 C CNN
	1    13600 5700
	1    0    0    -1  
$EndComp
Text Label 13000 5750 2    60   ~ 0
IOREF
Text Label 13000 5900 2    60   ~ 0
TEMP_IO
$Comp
L GNDD #PWR032
U 1 1 5A5FDAEF
P 13000 6050
F 0 "#PWR032" H 13000 5800 50  0001 C CNN
F 1 "GNDD" H 13000 5925 50  0000 C CNN
F 2 "" H 13000 6050 50  0001 C CNN
F 3 "" H 13000 6050 50  0001 C CNN
	1    13000 6050
	0    1    1    0   
$EndComp
Wire Wire Line
	13000 6050 13350 6050
Wire Wire Line
	13000 5750 13350 5750
Wire Wire Line
	12600 5900 13350 5900
$Comp
L R R12
U 1 1 5A5FDD5C
P 12450 5900
F 0 "R12" V 12530 5900 50  0000 C CNN
F 1 "4.7k" V 12450 5900 50  0000 C CNN
F 2 "Resistors_SMD:R_0805" V 12380 5900 50  0001 C CNN
F 3 "" H 12450 5900 50  0001 C CNN
	1    12450 5900
	0    1    1    0   
$EndComp
Text Label 12050 5900 2    60   ~ 0
IOREF
Wire Wire Line
	12050 5900 12300 5900
Text Notes 2500 3800 2    60   ~ 0
POWER REGULATORS
Text Notes 2200 7400 2    60   ~ 0
CHIP ID SELECTION
Text Notes 13350 5400 2    60   ~ 0
TEMPERATURE SENSOR
Text Notes 13300 2300 2    60   ~ 0
LEVEL SHIFTER B(IOREF) <-> A(1V8)
$Comp
L C C6
U 1 1 5A5FFA99
P 6800 6900
F 0 "C6" H 6825 7000 50  0000 L CNN
F 1 "100nF" H 6825 6800 50  0000 L CNN
F 2 "Capacitors_SMD:C_0805" H 6838 6750 50  0001 C CNN
F 3 "" H 6800 6900 50  0001 C CNN
	1    6800 6900
	1    0    0    -1  
$EndComp
$Comp
L +3.3V #PWR033
U 1 1 5A5FFB85
P 6800 6550
F 0 "#PWR033" H 6800 6400 50  0001 C CNN
F 1 "+3.3V" H 6800 6690 50  0000 C CNN
F 2 "" H 6800 6550 50  0001 C CNN
F 3 "" H 6800 6550 50  0001 C CNN
	1    6800 6550
	1    0    0    -1  
$EndComp
$Comp
L GNDD #PWR034
U 1 1 5A5FFBF9
P 6800 7250
F 0 "#PWR034" H 6800 7000 50  0001 C CNN
F 1 "GNDD" H 6800 7125 50  0000 C CNN
F 2 "" H 6800 7250 50  0001 C CNN
F 3 "" H 6800 7250 50  0001 C CNN
	1    6800 7250
	1    0    0    -1  
$EndComp
Wire Wire Line
	6800 6550 6800 6750
Wire Wire Line
	6800 7050 6800 7250
$Comp
L Arduino_Uno_Shield ARD1
U 1 1 5A65E5BA
P 2700 2000
F 0 "ARD1" V 2800 2000 60  0000 C CNN
F 1 "Arduino_Uno_Shield" V 2600 2000 60  0000 C CNN
F 2 "Arduino_Shield_Blank:Arduino_Uno_Shield" H 4500 5750 60  0001 C CNN
F 3 "" H 4500 5750 60  0001 C CNN
	1    2700 2000
	1    0    0    -1  
$EndComp
Wire Wire Line
	1400 2650 1050 2650
Wire Wire Line
	1050 2550 1050 2800
Wire Wire Line
	1050 2750 1400 2750
Connection ~ 1050 2750
Wire Wire Line
	1400 2550 1050 2550
Connection ~ 1050 2650
Text Label 1400 2550 2    60   ~ 0
GND
Text Label 4000 1050 0    60   ~ 0
CTRL_DIR_IO
Text Label 4000 1450 0    60   ~ 0
ENABLE_IO
Text Label 4000 1850 0    60   ~ 0
DCLK_IO
Text Label 4000 1950 0    60   ~ 0
TEMP_IO
Text Label 4000 1650 0    60   ~ 0
RST_N_IO
Text Label 4000 1550 0    60   ~ 0
CTRL_IO
Text Label 1400 3050 2    60   ~ 0
VIN
Text Label 1400 2950 2    60   ~ 0
5V
Text Label 4000 3050 0    60   ~ 0
IOREF
Text Label 4000 2950 0    60   ~ 0
RESET
Wire Wire Line
	1400 2950 1200 2950
Wire Wire Line
	1200 2950 1200 3150
Wire Wire Line
	1200 3150 950  3150
Wire Wire Line
	7400 1800 7300 1800
Text Label 7300 1800 2    60   ~ 0
RST_N
Wire Wire Line
	7400 2300 7250 2300
Wire Wire Line
	7400 2400 7250 2400
Text Label 7250 2300 2    60   ~ 0
DCLK_P
Text Label 7250 2400 2    60   ~ 0
DCLK_N
$Comp
L GNDD #PWR035
U 1 1 5A708A6E
P 3150 6450
F 0 "#PWR035" H 3150 6200 50  0001 C CNN
F 1 "GNDD" H 3150 6325 50  0000 C CNN
F 2 "" H 3150 6450 50  0001 C CNN
F 3 "" H 3150 6450 50  0001 C CNN
	1    3150 6450
	1    0    0    -1  
$EndComp
Wire Wire Line
	3150 6300 3150 6450
$EndSCHEMATC
